{
  "BASE_HP": 45,
  "BASE_SUM_SKILLS": 20,
  "MIN_SKILL_VALUE": 5,

  "BASE_TURN_POINTS": 3,
  "MAX_TURN_POINTS": 5,
  "RESTORE_TURN_POINTS": 3,

  "MIN_PHYSICAL_DAMAGE": 4,
  "MAX_PHYSICAL_DAMAGE_MULTIPLY": 25,
  "PHYSICAL_DAMAGE_MULTIPLY": 4,

  "CRITICAL_CHANCE": 5,
  "CRITICAL_CHANCE_MULTIPLY": 2,


  "CRITICAL_DAMAGE": 130,
  "CRITICAL_DAMAGE_MULTIPLY": 5,

  "ARMOR": 5,
  "ARMOR_MULTIPLY": 3,
  "ARMOR_INCREASE": 1,

  "BASE_EVASION": 3,
  "EVASION_MULTIPLY": 5,
  "EVASION_INCREASE": 3,

  "VITALITY_HP_MULTIPLY": 2
}
